{ "photos": { "page": 1, "pages": 17, "perpage": 100, "total": "1671",
    "photo": [
        { "id": "52608033816", "owner": "124284292@N03", "secret": "0310171d63", "server": "65535", "farm": 66, "title": "SON_8256", "ispublic": 1, "isfriend": 0, "isfamily": 0, "date_faved": "1676297134" },
        { "id": "52685229006", "owner": "34938526@N02", "secret": "3ef54f85ff", "server": "65535", "farm": 66, "title": "056A1683", "ispublic": 1, "isfriend": 0, "isfamily": 0, "date_faved": "1676293529" },
        { "id": "52655656922", "owner": "38668125@N03", "secret": "c702d24b47", "server": "65535", "farm": 66, "title": "DSC04778-8", "ispublic": 1, "isfriend": 0, "isfamily": 0, "date_faved": "1675760075" },
        { "id": "52656669810", "owner": "38668125@N03", "secret": "9e18fbd95d", "server": "65535", "farm": 66, "title": "DSC04779-9", "ispublic": 1, "isfriend": 0, "isfamily": 0, "date_faved": "1675035842" },
        { "id": "51787929532", "owner": "151320684@N07", "secret": "a51b3e0688", "server": "65535", "farm": 66, "title": "KKK_6256", "ispublic": 1, "isfriend": 0, "isfamily": 0, "date_faved": "1675035744" },
        { "id": "51789619030", "owner": "151320684@N07", "secret": "b549098c8b", "server": "65535", "farm": 66, "title": "KKK_6237", "ispublic": 1, "isfriend": 0, "isfamily": 0, "date_faved": "1675035742" },
        { "id": "51873441599", "owner": "151320684@N07", "secret": "14599db431", "server": "65535", "farm": 66, "title": "KKK_2638", "ispublic": 1, "isfriend": 0, "isfamily": 0, "date_faved": "1675035715" },
        { "id": "52597598569", "owner": "38668125@N03", "secret": "4493cec65f", "server": "65535", "farm": 66, "title": "DSC02536-1", "ispublic": 1, "isfriend": 0, "isfamily": 0, "date_faved": "1674233518" },
        { "id": "52597937416", "owner": "38668125@N03", "secret": "abaca55dee", "server": "65535", "farm": 66, "title": "DSC02539-2", "ispublic": 1, "isfriend": 0, "isfamily": 0, "date_faved": "1674233515" },
        { "id": "52605194935", "owner": "38668125@N03", "secret": "73393f4d4f", "server": "65535", "farm": 66, "title": "DSC02803-1", "ispublic": 1, "isfriend": 0, "isfamily": 0, "date_faved": "1674233505" },
        { "id": "52605294540", "owner": "38668125@N03", "secret": "2926d7b1d9", "server": "65535", "farm": 66, "title": "DSC02804-2", "ispublic": 1, "isfriend": 0, "isfamily": 0, "date_faved": "1674233503" },
        { "id": "52604920971", "owner": "38668125@N03", "secret": "53dd0c6ee0", "server": "65535", "farm": 66, "title": "DSC02809-3", "ispublic": 1, "isfriend": 0, "isfamily": 0, "date_faved": "1674233501" },
        { "id": "52606543456", "owner": "38668125@N03", "secret": "62bcfbdbc9", "server": "65535", "farm": 66, "title": "DSC02828-1", "ispublic": 1, "isfriend": 0, "isfamily": 0, "date_faved": "1674233499" },
        { "id": "52626873035", "owner": "38668125@N03", "secret": "1b9e2f9fa1", "server": "65535", "farm": 66, "title": "DSC03164-3", "ispublic": 1, "isfriend": 0, "isfamily": 0, "date_faved": "1674233485" },
        { "id": "52628375767", "owner": "38668125@N03", "secret": "84f5a5fce4", "server": "65535", "farm": 66, "title": "DSC03306-9", "ispublic": 1, "isfriend": 0, "isfamily": 0, "date_faved": "1674233479" },
        { "id": "52611467198", "owner": "38668125@N03", "secret": "72783f5d8a", "server": "65535", "farm": 66, "title": "DSC00031-2", "ispublic": 1, "isfriend": 0, "isfamily": 0, "date_faved": "1674233474" },
        { "id": "52625783492", "owner": "38668125@N03", "secret": "0081dd83e8", "server": "65535", "farm": 66, "title": "DSC03121-1", "ispublic": 1, "isfriend": 0, "isfamily": 0, "date_faved": "1674233455" },
        { "id": "52626623244", "owner": "38668125@N03", "secret": "884d8ed2ef", "server": "65535", "farm": 66, "title": "DSC03161-2", "ispublic": 1, "isfriend": 0, "isfamily": 0, "date_faved": "1674233453" },
        { "id": "52633245818", "owner": "38668125@N03", "secret": "2b96c8ff93", "server": "65535", "farm": 66, "title": "DSC03369-12", "ispublic": 1, "isfriend": 0, "isfamily": 0, "date_faved": "1674233449" },
        { "id": "52037692166", "owner": "9440662@N08", "secret": "f28c3665f1", "server": "65535", "farm": 66, "title": "è™å§¬", "ispublic": 1, "isfriend": 0, "isfamily": 0, "date_faved": "1657243526" },
        { "id": "51299236809", "owner": "133296359@N08", "secret": "0fcd1b4829", "server": "65535", "farm": 66, "title": "\"Ultrasonic\"", "ispublic": 1, "isfriend": 0, "isfamily": 0, "date_faved": "1656572288" },
        { "id": "35901842680", "owner": "32847708@N02", "secret": "194bd3f80d", "server": "4295", "farm": 5, "title": "DSC07193", "ispublic": 1, "isfriend": 0, "isfamily": 0, "date_faved": "1656057569" },
        { "id": "42859335352", "owner": "32847708@N02", "secret": "494b1bcffe", "server": "1769", "farm": 2, "title": "MPG05033", "ispublic": 1, "isfriend": 0, "isfamily": 0, "date_faved": "1656053579" },
        { "id": "45003628621", "owner": "32847708@N02", "secret": "6e84bf6f79", "server": "1932", "farm": 2, "title": "MPG05149", "ispublic": 1, "isfriend": 0, "isfamily": 0, "date_faved": "1656053563" },
        { "id": "45020108264", "owner": "32847708@N02", "secret": "9941302fe2", "server": "4810", "farm": 5, "title": "PDM06869", "ispublic": 1, "isfriend": 0, "isfamily": 0, "date_faved": "1656053556" },
        { "id": "49985331836", "owner": "32847708@N02", "secret": "50b02f49c5", "server": "65535", "farm": 66, "title": "TLY03329", "ispublic": 1, "isfriend": 0, "isfamily": 0, "date_faved": "1656053359" },
        { "id": "50352190202", "owner": "32847708@N02", "secret": "f4208f1253", "server": "65535", "farm": 66, "title": "TKN03914", "ispublic": 1, "isfriend": 0, "isfamily": 0, "date_faved": "1656053350" },
        { "id": "50410157773", "owner": "32847708@N02", "secret": "10fa8d2873", "server": "65535", "farm": 66, "title": "TKN03978", "ispublic": 1, "isfriend": 0, "isfamily": 0, "date_faved": "1656053346" },
        { "id": "52005186124", "owner": "32847708@N02", "secret": "61616daed0", "server": "65535", "farm": 66, "title": "LLN06284", "ispublic": 1, "isfriend": 0, "isfamily": 0, "date_faved": "1656052309" },
        { "id": "51169003285", "owner": "32847708@N02", "secret": "ae4494877c", "server": "65535", "farm": 66, "title": "TLE05996", "ispublic": 1, "isfriend": 0, "isfamily": 0, "date_faved": "1656035362" },
        { "id": "49900910193", "owner": "145683850@N07", "secret": "812562803f", "server": "65535", "farm": 66, "title": "Just Listen To You Gut Â©", "ispublic": 1, "isfriend": 0, "isfamily": 0, "date_faved": "1641785881" },
        { "id": "51807855834", "owner": "31009175@N04", "secret": "35b3dc0821", "server": "65535", "farm": 66, "title": "Feel Flows", "ispublic": 1, "isfriend": 0, "isfamily": 0, "date_faved": "1641785868" },
        { "id": "51809745443", "owner": "194747362@N03", "secret": "e2a282d13b", "server": "65535", "farm": 66, "title": "Wish you a humpy dumpy sunday ğŸ‘ğŸ’¦", "ispublic": 1, "isfriend": 0, "isfamily": 0, "date_faved": "1641785745" },
        { "id": "51552360502", "owner": "32847708@N02", "secret": "acd9a86df3", "server": "65535", "farm": 66, "title": "TKN03896", "ispublic": 1, "isfriend": 0, "isfamily": 0, "date_faved": "1641784653" },
        { "id": "51677998850", "owner": "32847708@N02", "secret": "1d7ac2822b", "server": "65535", "farm": 66, "title": "LUO08397", "ispublic": 1, "isfriend": 0, "isfamily": 0, "date_faved": "1641784649" },
        { "id": "51669378603", "owner": "128422691@N03", "secret": "9b4f41d057", "server": "65535", "farm": 66, "title": "_DSC2551", "ispublic": 1, "isfriend": 0, "isfamily": 0, "date_faved": "1641784628" },
        { "id": "47768584221", "owner": "69029055@N08", "secret": "bfbd74a97b", "server": "65535", "farm": 66, "title": "", "ispublic": 0, "isfriend": 0, "isfamily": 0, "date_faved": "1641722696" },
        { "id": "49056193011", "owner": "69029055@N08", "secret": "8782ea024c", "server": "65535", "farm": 66, "title": "", "ispublic": 1, "isfriend": 0, "isfamily": 0, "date_faved": "1641722631" },
        { "id": "49055676203", "owner": "69029055@N08", "secret": "f0ece59c63", "server": "65535", "farm": 66, "title": "", "ispublic": 1, "isfriend": 0, "isfamily": 0, "date_faved": "1641722629" },
        { "id": "51754900566", "owner": "69029055@N08", "secret": "59158da3dd", "server": "65535", "farm": 66, "title": "", "ispublic": 1, "isfriend": 0, "isfamily": 0, "date_faved": "1641722601" },
        { "id": "51754900926", "owner": "69029055@N08", "secret": "cb70f3e31f", "server": "65535", "farm": 66, "title": "", "ispublic": 1, "isfriend": 0, "isfamily": 0, "date_faved": "1641722599" },
        { "id": "51754901271", "owner": "69029055@N08", "secret": "266e6766a0", "server": "65535", "farm": 66, "title": "", "ispublic": 1, "isfriend": 0, "isfamily": 0, "date_faved": "1641722597" },
        { "id": "51755145013", "owner": "69029055@N08", "secret": "b26d97904f", "server": "65535", "farm": 66, "title": "", "ispublic": 1, "isfriend": 0, "isfamily": 0, "date_faved": "1641722595" },
        { "id": "51757654915", "owner": "69029055@N08", "secret": "0ef2406b19", "server": "65535", "farm": 66, "title": "", "ispublic": 1, "isfriend": 0, "isfamily": 0, "date_faved": "1641722594" },
        { "id": "51808259007", "owner": "69029055@N08", "secret": "4c1bd25321", "server": "65535", "farm": 66, "title": "", "ispublic": 1, "isfriend": 0, "isfamily": 0, "date_faved": "1641722589" },
        { "id": "51808258707", "owner": "69029055@N08", "secret": "2000fc9f34", "server": "65535", "farm": 66, "title": "", "ispublic": 1, "isfriend": 0, "isfamily": 0, "date_faved": "1641722587" },
        { "id": "51809331313", "owner": "69029055@N08", "secret": "1d4059b304", "server": "65535", "farm": 66, "title": "", "ispublic": 1, "isfriend": 0, "isfamily": 0, "date_faved": "1641722585" },
        { "id": "51809331113", "owner": "69029055@N08", "secret": "6014409dcb", "server": "65535", "farm": 66, "title": "", "ispublic": 1, "isfriend": 0, "isfamily": 0, "date_faved": "1641722584" },
        { "id": "51809213531", "owner": "69029055@N08", "secret": "3babe10ebf", "server": "65535", "farm": 66, "title": "", "ispublic": 1, "isfriend": 0, "isfamily": 0, "date_faved": "1641722583" },
        { "id": "51808257932", "owner": "69029055@N08", "secret": 0e27291275, "server": "65535", "farm": 66, "title": "", "ispublic": 1, "isfriend": 0, "isfamily": 0, "date_faved": "1641722580" },
        { "id": "51809568989", "owner": "69029055@N08", "secret": "8fb60bafbd", "server": "65535", "farm": 66, "title": "", "ispublic": 1, "isfriend": 0, "isfamily": 0, "date_faved": "1641722578" },
        { "id": "51794117865", "owner": "43453633@N05", "secret": "f555a090b3", "server": "65535", "farm": 66, "title": "DSC_2302", "ispublic": 1, "isfriend": 0, "isfamily": 0, "date_faved": "1641722019" },
        { "id": "51793380771", "owner": "43453633@N05", "secret": "69c84329f1", "server": "65535", "farm": 66, "title": "DSC_2300", "ispublic": 1, "isfriend": 0, "isfamily": 0, "date_faved": "1641722017" },
        { "id": "51795172570", "owner": "43453633@N05", "secret": "9b5b680cb3", "server": "65535", "farm": 66, "title": "DSC_2376", "ispublic": 1, "isfriend": 0, "isfamily": 0, "date_faved": "1641722009" },
        { "id": "51794559463", "owner": "43453633@N05", "secret": "973683d48e", "server": "65535", "farm": 66, "title": "DSC_2367", "ispublic": 1, "isfriend": 0, "isfamily": 0, "date_faved": "1641722006" },
        { "id": "51794559578", "owner": "43453633@N05", "secret": "29b929f348", "server": "65535", "farm": 66, "title": "DSC_2369", "ispublic": 1, "isfriend": 0, "isfamily": 0, "date_faved": "1641722005" },
        { "id": "51795172515", "owner": "43453633@N05", "secret": "235dcdc55c", "server": "65535", "farm": 66, "title": "DSC_2371", "ispublic": 1, "isfriend": 0, "isfamily": 0, "date_faved": "1641722004" },
        { "id": "51794438326", "owner": "43453633@N05", "secret": "e9ef4e73d1", "server": "65535", "farm": 66, "title": "DSC_2366", "ispublic": 1, "isfriend": 0, "isfamily": 0, "date_faved": "1641722001" },
        { "id": "51793504132", "owner": "43453633@N05", "secret": "27631ecee4", "server": "65535", "farm": 66, "title": "DSC_4804", "ispublic": 1, "isfriend": 0, "isfamily": 0, "date_faved": "1641722000" },
        { "id": "51794575198", "owner": "43453633@N05", "secret": "3eb41b393b", "server": "65535", "farm": 66, "title": "DSC_4806", "ispublic": 1, "isfriend": 0, "isfamily": 0, "date_faved": "1641721998" },
        { "id": "51796915018", "owner": "43453633@N05", "secret": "c7ec0def85", "server": "65535", "farm": 66, "title": "DSC_2464", "ispublic": 1, "isfriend": 0, "isfamily": 0, "date_faved": "1641721995" },
        { "id": "51797524305", "owner": "43453633@N05", "secret": "904b083fab", "server": "65535", "farm": 66, "title": "DSC_2467", "ispublic": 1, "isfriend": 0, "isfamily": 0, "date_faved": "1641721993" },
        { "id": "51797165734", "owner": "43453633@N05", "secret": "0737c3b214", "server": "65535", "farm": 66, "title": "DSC_2415", "ispublic": 1, "isfriend": 0, "isfamily": 0, "date_faved": "1641721990" },
        { "id": "51797540835", "owner": "43453633@N05", "secret": "7ffa2d14e1", "server": "65535", "farm": 66, "title": "DSC_4811", "ispublic": 1, "isfriend": 0, "isfamily": 0, "date_faved": "1641721987" },
        { "id": "51795865007", "owner": "43453633@N05", "secret": "997777fa74", "server": "65535", "farm": 66, "title": "DSC_4807", "ispublic": 1, "isfriend": 0, "isfamily": 0, "date_faved": "1641721986" },
        { "id": "51798131327", "owner": "43453633@N05", "secret": "83ffb8273d", "server": "65535", "farm": 66, "title": "DSC_2487", "ispublic": 1, "isfriend": 0, "isfamily": 0, "date_faved": "1641721983" },
        { "id": "51799809415", "owner": "43453633@N05", "secret": "3a3c1bf7b3", "server": "65535", "farm": 66, "title": "DSC_2477", "ispublic": 1, "isfriend": 0, "isfamily": 0, "date_faved": "1641721980" },
        { "id": "51798130792", "owner": "43453633@N05", "secret": "f199b4fe0b", "server": "65535", "farm": 66, "title": "DSC_2478", "ispublic": 1, "isfriend": 0, "isfamily": 0, "date_faved": "1641721978" },
        { "id": "51799200838", "owner": "43453633@N05", "secret": "12b5d00301", "server": "65535", "farm": 66, "title": "DSC_2470", "ispublic": 1, "isfriend": 0, "isfamily": 0, "date_faved": "1641721976" },
        { "id": "51799443439", "owner": "43453633@N05", "secret": "a8a29da703", "server": "65535", "farm": 66, "title": "DSC_2469", "ispublic": 1, "isfriend": 0, "isfamily": 0, "date_faved": "1641721974" },
        { "id": "51799443759", "owner": "43453633@N05", "secret": "8718f1d47d", "server": "65535", "farm": 66, "title": "DSC_2471", "ispublic": 1, "isfriend": 0, "isfamily": 0, "date_faved": "1641721973" },
        { "id": "51799075901", "owner": "43453633@N05", "secret": "1748892b85", "server": "65535", "farm": 66, "title": "DSC_2476", "ispublic": 1, "isfriend": 0, "isfamily": 0, "date_faved": "1641721971" },
        { "id": "51195450210", "owner": "25873639@N03", "secret": "f93729a15c", "server": "65535", "farm": 66, "title": "BW1I2307 æ‹·è²", "ispublic": 1, "isfriend": 0, "isfamily": 0, "date_faved": "1641609656" },
        { "id": "50808913897", "owner": "9440662@N08", "secret": "a9d87de5ea", "server": "65535", "farm": 66, "title": "ãƒ«ã‚«", "ispublic": 1, "isfriend": 0, "isfamily": 0, "date_faved": "1641291619" },
        { "id": "51328802279", "owner": "124284292@N03", "secret": "1f36a114d6", "server": "65535", "farm": 66, "title": "SON_3470", "ispublic": 1, "isfriend": 0, "isfamily": 0, "date_faved": "1641281416" },
        { "id": "51235987614", "owner": "124284292@N03", "secret": "b1c278f13c", "server": "65535", "farm": 66, "title": "SON_0575", "ispublic": 1, "isfriend": 0, "isfamily": 0, "date_faved": "1641281146" },
        { "id": "51104073163", "owner": "9440662@N08", "secret": "c161999633", "server": "65535", "farm": 66, "title": "DSC_8626", "ispublic": 1, "isfriend": 0, "isfamily": 0, "date_faved": "1631880695" },
        { "id": "51205638631", "owner": "192528122@N03", "secret": "a6cd41a69a", "server": "65535", "farm": 66, "title": "IMG_5639", "ispublic": 1, "isfriend": 0, "isfamily": 0, "date_faved": "1629724512" },
        { "id": "51322561943", "owner": "142992546@N04", "secret": "cac757d1f1", "server": "65535", "farm": 66, "title": "GM2A3905", "ispublic": 1, "isfriend": 0, "isfamily": 0, "date_faved": "1629715478" },
        { "id": "51323358410", "owner": "142992546@N04", "secret": "c23a16f076", "server": "65535", "farm": 66, "title": "DSC_0896", "ispublic": 1, "isfriend": 0, "isfamily": 0, "date_faved": "1629715474" },
        { "id": "51323358320", "owner": "142992546@N04", "secret": "da1b8abd27", "server": "65535", "farm": 66, "title": "DSC_4659", "ispublic": 1, "isfriend": 0, "isfamily": 0, "date_faved": "1629715472" },
        { "id": "51392959957", "owner": "94768240@N02", "secret": "3d99baf1d9", "server": "65535", "farm": 66, "title": "TPF_6559", "ispublic": 1, "isfriend": 0, "isfamily": 0, "date_faved": "1629708407" },
        { "id": "51394737010", "owner": "94768240@N02", "secret": "1ab8998cfa", "server": "65535", "farm": 66, "title": "TPF_6651", "ispublic": 1, "isfriend": 0, "isfamily": 0, "date_faved": "1629708404" },
        { "id": "49395305926", "owner": "10740104@N04", "secret": "13fe2a3c4a", "server": "65535", "farm": 66, "title": "DSC08075", "ispublic": 1, "isfriend": 0, "isfamily": 0, "date_faved": "1625628164" },
        { "id": "50864491423", "owner": "99002729@N07", "secret": "428f594904", "server": "65535", "farm": 66, "title": "DSC_9811", "ispublic": 1, "isfriend": 0, "isfamily": 0, "date_faved": "1612224904" },
        { "id": "50052098971", "owner": "145683850@N07", "secret": "1b27e05794", "server": "65535", "farm": 66, "title": "SHUKA Â©", "ispublic": 1, "isfriend": 0, "isfamily": 0, "date_faved": "1593298970" },
        { "id": "50035653598", "owner": "136909346@N03", "secret": "2c5f2a3862", "server": "65535", "farm": 66, "title": "Holed09", "ispublic": 1, "isfriend": 0, "isfamily": 0, "date_faved": "1592914800" },
        { "id": "50035653618", "owner": "136909346@N03", "secret": "839b76e639", "server": "65535", "farm": 66, "title": "Holed08", "ispublic": 1, "isfriend": 0, "isfamily": 0, "date_faved": "1592914798" },
        { "id": "50036458347", "owner": "136909346@N03", "secret": "2a6eef8345", "server": "65535", "farm": 66, "title": "Holed06", "ispublic": 1, "isfriend": 0, "isfamily": 0, "date_faved": "1592914794" },
        { "id": "49912175732", "owner": "136909346@N03", "secret": "22c1a82a5a", "server": "65535", "farm": 66, "title": "Holed05", "ispublic": 1, "isfriend": 0, "isfamily": 0, "date_faved": "1592914791" },
        { "id": "49911362398", "owner": "136909346@N03", "secret": "56a81553d0", "server": "65535", "farm": 66, "title": "Holed04", "ispublic": 1, "isfriend": 0, "isfamily": 0, "date_faved": "1592914789" },
        { "id": "40744229293", "owner": "136909346@N03", "secret": "2d272f9cea", "server": "65535", "farm": 66, "title": "Magic17", "ispublic": 1, "isfriend": 0, "isfamily": 0, "date_faved": "1556346891" },
        { "id": "46167294195", "owner": "57944809@N03", "secret": "5af71bb035", "server": "7837", "farm": 8, "title": "DSC_1549", "ispublic": 1, "isfriend": 0, "isfamily": 0, "date_faved": "1552352869" },
        { "id": "45839055145", "owner": "57944809@N03", "secret": "e767c5eccf", "server": "7845", "farm": 8, "title": "DSC_1348", "ispublic": 1, "isfriend": 0, "isfamily": 0, "date_faved": "1552258026" },
        { "id": "46167293585", "owner": "57944809@N03", "secret": "4a23b4586c", "server": "7903", "farm": 8, "title": "DSC_1541", "ispublic": 1, "isfriend": 0, "isfamily": 0, "date_faved": "1552258021" },
        { "id": "46167293125", "owner": "57944809@N03", "secret": "13239aae51", "server": "7804", "farm": 8, "title": "DSC_1442", "ispublic": 1, "isfriend": 0, "isfamily": 0, "date_faved": "1552258019" },
        { "id": "46357065854", "owner": "57944809@N03", "secret": "cffd54e868", "server": "7804", "farm": 8, "title": "DSC_1331", "ispublic": 1, "isfriend": 0, "isfamily": 0, "date_faved": "1552258013" },
        { "id": "43642014301", "owner": "58557996@N04", "secret": "deab46302b", "server": "914", "farm": 1, "title": "1M3A8771", "ispublic": 1, "isfriend": 0, "isfamily": 0, "date_faved": "1550153606" }
    ] }, "stat": "ok" }
